{
  "images" : [
    {
      "idiom" : "universal",
      "filename" : "Snip 2018-01-14 00.08.16.png",
      "scale" : "1x"
    },
    {
      "idiom" : "universal",
      "scale" : "2x"
    },
    {
      "idiom" : "universal",
      "scale" : "3x"
    }
  ],
  "info" : {
    "version" : 1,
    "author" : "xcode"
  }
}